Solve Roots for N (Rows) Strictly Monotonic Functions • REconTools
…
#>  Min.   :-6.210e-04   Length:684         Length:684        
#>  1st Qu.:-6.641e-06   Class :character   Class :character  
#>  Median : 2.350e-08   Mode  :character   Mode  :character  
#>  Mean   : 2.613e-05                                        
#>  3rd Qu.: 2.393e-05                                        
#>  Max.   : 8.464e-04                                        
#>      value           
#>  Min.   :-24328.416  
#>  1st Qu.:     0.000  
#>  Median :     1.917  
#>  Mean   :   -97.563  
#>  3rd Qu.:    15.674  
#>  Max.   :   100.000
head(tb_states_choices_bisec_long %>% select(-one_of('p','f_p','f_p_t_f_a')), 30)
#> # A tibble: 30 x 6
#>    INDI_ID  fl_A fl_alpha varname biseciter   value
#>      <int> <dbl>    <dbl> <chr>   <chr>       <dbl>
#>  1       1    -2      0.1 a       0              0 
#>  2       1    -2      0.1 b       0            100 
#>  3       1    -2      0.1 fa      0            100 
#>  4       1    -2      0.1 fb      0         -24328.
#>  5       1    -2      0.1 a       1              0 
#>  6       1    -2      0.1 b       1             50 
#>  7       1    -2      0.1 fa      1            100 
#>  8       1    -2      0.1 fb      1         -10867.
#>  9       1    -2      0.1 a       2              0 
#> 10       1    -2      0.1 b       2             25 
#> # ... with 20 more rows
tail(tb_states_choices_bisec_long %>% select(-one_of('p','f_p','f_p_t_f_a')), 30)
#> # A tibble: 30 x 6
#>    INDI_ID  fl_A fl_alpha varname biseciter   value
#>      <int> <dbl>    <dbl> <chr>   <chr>       <dbl>
#>  1       9     2      0.9 fa      11         0.0546
#>  2       9     2      0.9 fb      11        -0.0940
#>  3       9     2      0.9 a       12        31.5   
#>  4       9     2      0.9 b       12        31.5   
#>  5       9     2      0.9 fa      12         0.0546
#>  6       9     2      0.9 fb      12        -0.0197
#>  7       9     2      0.9 a       13        31.5   
#>  8       9     2      0.9 b       13        31.5   
#>  9       9     2      0.9 fa      13         0.0174
#> 10       9     2      0.9 fb      13        -0.0197
#> # ... with 20 more rows
…
#>  Min.   :-6.210e-04   Length:171         Min.   : 0.0000   Min.   :  0.8427  
#>  1st Qu.:-6.641e-06   Class :character   1st Qu.: 0.8057   1st Qu.:  5.2093  
#>  Median : 2.350e-08   Mode  :character   Median : 5.2002   Median : 11.7188  
#>  Mean   : 2.613e-05                      Mean   : 8.9430   Mean   : 19.4693  
#>  3rd Qu.: 2.393e-05                      3rd Qu.:15.6250   3rd Qu.: 25.0000  
#>  Max.   : 8.464e-04                      Max.   :31.5121   Max.   :100.0000  
#>        fa                  fb            
#>  Min.   :  0.00002   Min.   :-24328.416  
#>  1st Qu.:  0.04899   1st Qu.:   -45.805  
#>  Median :  0.79745   Median :    -1.329  
#>  Mean   : 25.85998   Mean   :  -444.523  
#>  3rd Qu.: 21.38681   3rd Qu.:    -0.064  
#>  Max.   :100.00000   Max.   :     0.000
head(tb_states_choices_bisec_wider %>% select(-one_of('p','f_p','f_p_t_f_a')), 30)
#> # A tibble: 30 x 8
#>    INDI_ID  fl_A fl_alpha biseciter     a       b     fa       fb
#>      <int> <dbl>    <dbl> <chr>     <dbl>   <dbl>  <dbl>    <dbl>
#>  1       1    -2      0.1 0         0     100     100    -24328. 
#>  2       1    -2      0.1 1         0      50     100    -10867. 
#>  3       1    -2      0.1 2         0      25     100     -4828. 
#>  4       1    -2      0.1 3         0      12.5   100     -2117. 
#>  5       1    -2      0.1 4         0       6.25  100      -898. 
#>  6       1    -2      0.1 5         0       3.12  100      -350. 
#>  7       1    -2      0.1 6         0       1.56  100      -103. 
#>  8       1    -2      0.1 7         0.781   1.56    8.29   -103. 
#>  9       1    -2      0.1 8         0.781   1.17    8.29    -46.0
#> 10       1    -2      0.1 9         0.781   0.977   8.29    -18.4
#> # ... with 20 more rows
tail(tb_states_choices_bisec_wider %>% select(-one_of('p','f_p','f_p_t_f_a')), 30)
#> # A tibble: 30 x 8
#>    INDI_ID  fl_A fl_alpha biseciter     a     b      fa         fb
#>      <int> <dbl>    <dbl> <chr>     <dbl> <dbl>   <dbl>      <dbl>
#>  1       8   1.5      0.8 8          22.3  22.7 0.579   -1.13     
#>  2       8   1.5      0.8 9          22.3  22.5 0.579   -0.278    
#>  3       8   1.5      0.8 10         22.4  22.5 0.150   -0.278    
#>  4       8   1.5      0.8 11         22.4  22.4 0.150   -0.0636   
#>  5       8   1.5      0.8 12         22.4  22.4 0.0434  -0.0636   
#>  6       8   1.5      0.8 13         22.4  22.4 0.0434  -0.0101   
#>  7       8   1.5      0.8 14         22.4  22.4 0.0167  -0.0101   
#>  8       8   1.5      0.8 15         22.4  22.4 0.00327 -0.0101   
#>  9       8   1.5      0.8 16         22.4  22.4 0.00327 -0.00342  
#> 10       8   1.5      0.8 17         22.4  22.4 0.00327 -0.0000761
#> # ... with 20 more rows
…
