PANEL CUMSUM LAST--Cumulative Sum by Index Up to Last in Group • REconTools
…
5.7621118

19.935239

Test Function

Testing ff_panel_cumsum_grouplast.

Cumulative Sum the Last

Within group last occurance, cumulative sum of last occurance of individual by date. Think of date as x, y as individual outcomes, and id as individual ID. Each individual is observed at multiple x points. In the example here, at each x, only one id observed.

ff_panel_cumsum_grouplast(tb_data, svr_id='id', svr_x='x', svr_y='y', svr_cumsumtop = 'y_cumsum', stat='sum')

## # A tibble: 39 x 4
## # Groups:   id [5]
##       id     x     y y_cumsum
##    <int> <int> <dbl>    <dbl>
##  1     3     1 0.600    0.600
##  2     5     2 0.826    1.43 
##  3     5     3 1.33     1.93 
##  4     4     4 0.961    2.89 
##  5     4     5 1.62     3.54 
##  6     1     6 0.499    4.04 
##  7     3     7 1.55     4.99 
##  8     5     8 2.13     5.79 
##  9     2     9 0.436    6.23 
## 10     4    10 2.13     6.74 
## # … with 29 more rows

Cumulative Average Last

Thinking of taking Average SAT scores but, only of the last score people have. Calculate a moving average, where the moving window is all past information, and the average is across individuals, and for each individual, we only take the most recent score.

ff_panel_cumsum_grouplast(tb_data, svr_id='id', svr_x='x', svr_y='y', svr_cumsumtop = 'y_movingaverage_mean', stat='mean')

## # A tibble: 39 x 4
## # Groups:   id [5]
##       id     x     y y_movingaverage_mean
##    <int> <int> <dbl>                <dbl>
##  1     3     1 0.600                0.600
##  2     5     2 0.826                0.713
##  3     5     3 1.33                 0.964
##  4     4     4 0.961                0.963
##  5     4     5 1.62                 1.18 
##  6     1     6 0.499                1.01 
##  7     3     7 1.55                 1.25 
##  8     5     8 2.13                 1.45 
##  9     2     9 0.436                1.25 
## 10     4    10 2.13                 1.35 
## # … with 29 more rows
…
