PANEL EXPAND--Append Group Mean Lagged Values as Additional Panel Variables • REconTools
…
             vf_months[,5:12]:svymthRound10 +
             vf_months[,6:12]:svymthRound12 +
             vf_months[,7:12]:svymthRound14 +
             vf_months[,8:12]:svymthRound16 +
             vf_months[,9:12]:svymthRound18 +
             vf_months[,10:12]:svymthRound20 +
             vf_months[,11:12]:svymthRound22 +
             vf_months[,12]:svymthRound24 ,
           data=df_hw_cebu_widelong)
rsm_coef = tidy(rs_test)
# vf_months[, 11:12]factor(svymthRound)24:svymthRound22
rsm_coef_inputs = rsm_coef %>% filter(grepl('vf_months', term))
rsm_coef_inputs

## # A tibble: 74 x 5
##    term                                     estimate std.error statistic p.value
##    <chr>                                       <dbl>     <dbl>     <dbl>   <dbl>
##  1 vf_months[, 1:12](Intercept):svymthRoun~  -0.0145   0.0145     -1.000  0.318 
##  2 vf_months[, 1:12]factor(svymthRound)4:s~  -0.0252   0.0144     -1.75   0.0801
##  3 vf_months[, 1:12]factor(svymthRound)6:s~  -0.0333   0.0196     -1.70   0.0896
##  4 vf_months[, 1:12]factor(svymthRound)8:s~  -0.0324   0.0212     -1.52   0.129 
##  5 vf_months[, 1:12]factor(svymthRound)10:~  -0.0351   0.0210     -1.67   0.0950
##  6 vf_months[, 1:12]factor(svymthRound)12:~  -0.0365   0.0195     -1.88   0.0613
##  7 vf_months[, 1:12]factor(svymthRound)14:~  -0.0310   0.0171     -1.81   0.0709
##  8 vf_months[, 1:12]factor(svymthRound)16:~  -0.0242   0.0142     -1.71   0.0890
##  9 vf_months[, 1:12]factor(svymthRound)18:~  -0.0193   0.0108     -1.78   0.0756
## 10 vf_months[, 1:12]factor(svymthRound)20:~  -0.0104   0.00731    -1.42   0.157 
## # ... with 64 more rows
…
